{"items":[{"id":"b3e53a80-16bf-4ff5-9466-0a14b39c94a7","name":" //Investor Granite","createdAt":"2024-07-27T07:57:04.8026428+00:00"},{"id":"7cdee906-ba5d-4a6c-88bd-c49a79d61438","name":"Granite","createdAt":"2024-07-27T07:54:44.9103517+00:00"},{"id":"4e7a21fd-9258-4e3a-b49a-530e9f0003f4","name":"matrix","createdAt":"2024-07-27T07:39:00.7246672+00:00"},{"id":"23aa1e3f-bbe1-451b-9d42-137055d40a7d","name":"FirstSpace Shoes","createdAt":"2024-07-27T07:54:59.5427453+00:00"},{"id":"5f0615c0-6c85-4c69-9215-4b42bf5379fb","name":"awdwd334static","createdAt":"2024-07-27T07:54:47.3243659+00:00"},{"id":"e0a5bca1-2656-4cd0-a163-88e43c8de474","name":"Jewelery","createdAt":"2024-07-27T07:53:51.039459+00:00"},{"id":"ed9cb580-8e9e-409e-a8ac-8f1c4776a713","name":" //Auto Integration","createdAt":"2024-07-27T07:57:52.6889568+00:00"},{"id":"e53d8d64-4acb-4d5d-9729-183882db6a01","name":"MySpacemouse_lead.uvvd","createdAt":"2024-07-27T07:38:46.6585117+00:00"},{"id":"bd790263-be0a-4a23-8c49-da72883d70d8","name":"array","createdAt":"2024-07-27T07:54:46.3663853+00:00"},{"id":"e7008397-438c-42e2-9d75-5831d9a4bddf","name":"orchid","createdAt":"2024-07-27T07:39:01.4450164+00:00"},{"id":"b3ff134b-4ff2-4a27-a6b8-6aea7cbdd4c3","name":" Frozen Soap","createdAt":"2024-07-27T07:54:55.531971+00:00"},{"id":"d1d3914e-b424-479d-ab02-8fd0a83d2932","name":"123456","createdAt":"2024-07-27T07:54:48.1977391+00:00"},{"id":"6d36da24-1425-44be-ba84-953e15c15333","name":"123456","createdAt":"2024-07-27T07:39:02.4939448+00:00"},{"id":"f891e740-06f2-48ab-8f1e-f62515fc145c","name":" interface applications","createdAt":"2024-07-27T07:56:58.5884445+00:00"},{"id":"08191d75-934e-4f3d-ae16-22b197f4aaf2","name":"Future-proofed","createdAt":"2024-07-27T07:38:56.1930567+00:00"},{"id":"91c7949c-de90-4bf9-9686-be907f1c2ece","name":"Security","createdAt":"2024-07-27T07:54:31.4174786+00:00"},{"id":"728774e9-d134-4e5d-a191-dfbe38692674","name":"Default namespace","createdAt":"2024-07-23T05:54:24.7500653+00:00"},{"id":"73313082-c5a9-48e3-b404-2786976aeaa0","name":"ClientSpace","createdAt":"2024-07-27T07:38:52.2276002+00:00"},{"id":"b0590f7e-7a19-457a-a84e-0a53a5aa4042","name":"awdwd334Account","createdAt":"2024-07-27T07:39:01.9624357+00:00"},{"id":"abbb15ca-9509-4292-b008-c8035d5f2dc8","name":"@kr","createdAt":"2024-07-27T07:54:54.5312458+00:00"}],"pageNumber":1,"totalPages":2,"totalCount":28,"pageSize":20,"hasPreviousPage":false,"hasNextPage":true}