{"items":[{"id":"6ef55dec-1086-4e02-a234-6bf41860f3e3","name":"Kuvonch1","createdAt":"2024-07-19T06:59:26.3160605+00:00"},{"id":"b77f13ac-8bba-4201-86c0-f726e095c7d5","name":"Handmade Plastic Tuna","createdAt":"2024-07-18T14:23:49.6303632+00:00"},{"id":"4121eba4-2009-4878-b194-38bfbf2ee623","name":"Handcrafted Fresh Bacon","createdAt":"2024-07-18T07:29:46.5431804+00:00"},{"id":"1676245a-f27c-4bb5-9706-ee1bad4ee7ac","name":"Ulug'bekcapacity_transparent_asynchronous.wgt","createdAt":"2024-07-19T06:51:00.514971+00:00"},{"id":"c44d6b37-0b9a-4268-a2eb-3cdff498f8cf","name":"Ulug'bekbuckinghamshire.sgl","createdAt":"2024-07-19T04:33:26.6941939+00:00"},{"id":"11e7e9fd-46b5-4149-9c16-1192378faace","name":"Ulug'bekinternal_factors.xbm","createdAt":"2024-07-18T09:29:02.5024916+00:00"},{"id":"418d20fc-00e3-4c0b-90ac-4431655f6a5f","name":"Kuvonch1","createdAt":"2024-07-19T06:59:26.3189529+00:00"},{"id":"25f70e42-ddfb-4e5d-9ff1-3427296c7dd8","name":"Refined Rubber Chicken","createdAt":"2024-07-18T05:10:49.6785835+00:00"},{"id":"f1dad9c5-78b3-40fa-bfd7-5b9d35e5c590","name":"Ulug'bekgeneration_deposit.p7r","createdAt":"2024-07-19T04:31:53.7027878+00:00"},{"id":"fa9c3db2-2a5e-484c-9b9a-6263121a1f3c","name":"Fantastic Plastic Car","createdAt":"2024-07-18T07:31:20.2370645+00:00"},{"id":"7ba3ccb7-8c49-412f-a9aa-06825d9d7237","name":"Ulug'bekalaska_small.pfb","createdAt":"2024-07-19T05:53:45.6460156+00:00"},{"id":"8832e26a-0500-4f37-ac25-1edefcfc1ebb","name":"Generic Frozen Computer","createdAt":"2024-07-19T05:37:19.6622+00:00"},{"id":"d50a79e3-3297-4203-bdc5-a78afe4c6870","name":"Fantastic Frozen Chicken","createdAt":"2024-07-18T09:13:32.8159549+00:00"},{"id":"9f67d07b-0f79-44a7-8f1c-19585a644db4","name":"Kuvonch1","createdAt":"2024-07-19T06:59:26.3152294+00:00"},{"id":"90b4efb9-342f-4150-8830-29b0d85547ae","name":"string","createdAt":"2024-07-18T07:23:54.5512648+00:00"},{"id":"108f02c0-d209-4fbe-8173-d1fc1e3d2f1d","name":"Tasty Soft Gloves","createdAt":"2024-07-18T09:30:22.7521067+00:00"},{"id":"686972c7-5537-4b98-9ac4-6832f1b2c9d0","name":"Handcrafted Frozen Pizza","createdAt":"2024-07-17T12:55:16.0908476+00:00"},{"id":"0b43e56b-a785-4667-9a1b-4aa7bf374c14","name":"new name","createdAt":"2024-07-18T05:31:45.3783763+00:00"},{"id":"6c2092e2-0a19-4779-a274-4fbc47d2041c","name":"Kuvonch1","createdAt":"2024-07-18T08:39:32.2071969+00:00"},{"id":"84be9e76-c28d-4b5f-b41d-8f0c2ad0c565","name":"Test namespace1","createdAt":"2024-07-19T05:49:34.1901725+00:00"}],"pageNumber":1,"totalPages":10,"totalCount":183,"pageSize":20,"hasPreviousPage":false,"hasNextPage":true}